<?xml version="1.0" encoding="utf-8"?>
<!-- Generator: Adobe Illustrator 22.1.0, SVG Export Plug-In . SVG Version: 6.00 Build 0)  -->
<svg version="1.1" id="Capa_1" xmlns="http://www.w3.org/2000/svg" xmlns:xlink="http://www.w3.org/1999/xlink" x="0px" y="0px"
	 viewBox="0 0 612 535.5" style="enable-background:new 0 0 612 535.5;" xml:space="preserve">
<style type="text/css">
	.st0{fill:#FFFFFF;}
</style>
<g>
	<g id="_x36__30_">
		<g>
			<path class="st0" d="M331.7,387.1c-7.5,7.5-7.5,19.6,0,27c7.5,7.5,19.6,7.5,27,0l131.9-132c4-4,5.7-9.3,5.4-14.5
				c0.3-5.2-1.4-10.5-5.4-14.5L358.7,121.3c-7.5-7.5-19.6-7.5-27,0c-7.5,7.5-7.5,19.6,0,27L432,248.6H19.1
				C8.6,248.6,0,257.2,0,267.8s8.6,19.1,19.1,19.1H432L331.7,387.1z M535.5,0H153c-42.2,0-76.5,34.3-76.5,76.5V153h38.3V76.5
				c0-21.1,17.1-38.3,38.3-38.3h382.5c21.1,0,38.3,17.1,38.3,38.3V459c0,21.1-17.1,38.3-38.3,38.3H153c-21.1,0-38.3-17.1-38.3-38.3
				v-76.5H76.5V459c0,42.2,34.3,76.5,76.5,76.5h382.5c42.2,0,76.5-34.3,76.5-76.5V76.5C612,34.3,577.7,0,535.5,0z"/>
		</g>
	</g>
</g>
</svg>
